[
    {
        "engine_name": "structure",
        "fingerprint": "7ae7dbec00c4a571400f90c19852eca0",
        "categories": [
            "Complexity"
        ],
        "check_name": "return_statements",
        "content": {
            "body": ""
        },
        "description": "Function `_main` has 5 return statements (exceeds 4 allowed).",
        "location": {
            "path": "workhorse/cmd/gitlab-resize-image/main.go",
            "lines": {
                "begin": 21,
                "end": 44
            }
        },
        "other_locations": [],
        "remediation_points": 350000,
        "severity": "major",
        "type": "issue"
    },
    {
        "engine_name": "structure",
        "fingerprint": "558020c41f667b8c6d541a84244eac69",
        "categories": [
            "Complexity"
        ],
        "check_name": "argument_count",
        "content": {
            "body": ""
        },
        "description": "Function `runPreAuthorizeHandler` has 6 arguments (exceeds 4 allowed). Consider refactoring.",
        "location": {
            "path": "workhorse/cmd/gitlab-workhorse/authorization_test.go",
            "lines": {
                "begin": 28,
                "end": 28
            }
        },
        "other_locations": [],
        "remediation_points": 450000,
        "severity": "minor",
        "type": "issue"
    },
    {
        "engine_name": "structure",
        "fingerprint": "dd2ae6b0824cfec6b066f16001ea7de6",
        "categories": [
            "Complexity"
        ],
        "check_name": "return_statements",
        "content": {
            "body": ""
        },
        "description": "Function `parseAuthBackend` has 5 return statements (exceeds 4 allowed).",
        "location": {
            "path": "workhorse/cmd/gitlab-workhorse/backend.go",
            "lines": {
                "begin": 8,
                "end": 30
            }
        },
        "other_locations": [],
        "remediation_points": 350000,
        "severity": "major",
        "type": "issue"
    },
    {
        "engine_name": "structure",
        "fingerprint": "0d4b99de4028b9d806de7abc1aaec348",
        "categories": [
            "Complexity"
        ],
        "check_name": "return_statements",
        "content": {
            "body": ""
        },
        "description": "Function `ensureGitalyRepository` has 8 return statements (exceeds 4 allowed).",
        "location": {
            "path": "workhorse/cmd/gitlab-workhorse/gitaly_integration_test.go",
            "lines": {
                "begin": 80,
                "end": 123
            }
        },
        "other_locations": [],
        "remediation_points": 500000,
        "severity": "major",
        "type": "issue"
    },
    {
        "engine_name": "structure",
        "fingerprint": "7730584c93766ff9181bef31ea811550",
        "categories": [
            "Complexity"
        ],
        "check_name": "file_lines",
        "content": {
            "body": ""
        },
        "description": "File `gitaly_test.go` has 664 lines of code (exceeds 500 allowed). Consider refactoring.",
        "location": {
            "path": "workhorse/cmd/gitlab-workhorse/gitaly_test.go",
            "lines": {
                "begin": 1,
                "end": 852
            }
        },
        "other_locations": [],
        "remediation_points": 3561600,
        "severity": "minor",
        "type": "issue"
    },
    {
        "engine_name": "structure",
        "fingerprint": "e6292d250dd58fb91afb9c862e95b40c",
        "categories": [
            "Complexity"
        ],
        "check_name": "method_lines",
        "content": {
            "body": ""
        },
        "description": "Function `TestGetInfoRefsProxiedToGitalySuccessfully` has 62 lines of code (exceeds 50 allowed). Consider refactoring.",
        "location": {
            "path": "workhorse/cmd/gitlab-workhorse/gitaly_test.go",
            "lines": {
                "begin": 52,
                "end": 132
            }
        },
        "other_locations": [],
        "remediation_points": 888000,
        "severity": "minor",
        "type": "issue"
    },
    {
        "engine_name": "structure",
        "fingerprint": "63e260042dfa17dc2ca77b8a423f3531",
        "categories": [
            "Complexity"
        ],
        "check_name": "method_lines",
        "content": {
            "body": ""
        },
        "description": "Function `TestPostUploadPackProxiedToGitalySuccessfully` has 62 lines of code (exceeds 50 allowed). Consider refactoring.",
        "location": {
            "path": "workhorse/cmd/gitlab-workhorse/gitaly_test.go",
            "lines": {
                "begin": 364,
                "end": 439
            }
        },
        "other_locations": [],
        "remediation_points": 888000,
        "severity": "minor",
        "type": "issue"
    }
  ]